…
    ## i The googlesheets4 package is using a cached token for
    ##   'gabriellanruiz2@gmail.com'.

    ## v Reading from "Copy of NP % Cover 2021".

    ## v Range 'data'.

    ## v Reading from "Copy of NP % Cover 2021".

    ## v Range ''specie status''.

    ## Joining, by = "taxa"

    ## # A tibble: 245 x 6
    ##    site   plot treatment taxa                   cover status   
    ##    <chr> <dbl> <chr>     <chr>                  <dbl> <chr>    
    ##  1 NP        1 NPK       Andropogon_gerardii        1 Native   
    ##  2 NP        1 NPK       Bromus_inermis             1 Nonnative
    ##  3 NP        1 NPK       Galium_boreale             2 Native   
    ##  4 NP        1 NPK       Helianthus_pauciflorus     1 Native   
    ##  5 NP        1 NPK       Poa_compressa              5 Nonnative
    ##  6 NP        1 NPK       Solidago_canadensis       15 Native   
    ##  7 NP        1 NPK       Solidago_gigantea          1 Native   
    ##  8 NP        1 NPK       Sorghastrum_nutans         1 Native   
    ##  9 NP        2 P         Andropogon_gerardii       20 Native   
    ## 10 NP        2 P         Dalea_candida              3 Native   
    ## # ... with 235 more rows

    ## v Reading from "Copy of Houston % Cover 2021".
    ## v Range 'data'.
    ## v Reading from "Copy of Houston % Cover 2021".
    ## v Range ''specie status''.
    ## Joining, by = "taxa"

    ## # A tibble: 180 x 6
    ##    site    treatment  plot taxa                       cover status   
    ##    <chr>   <chr>     <dbl> <chr>                      <dbl> <chr>    
    ##  1 Houston C             1 Bouteloua_curtipendula        10 Native   
    ##  2 Houston C             1 Dichanthelium_oligosanthes     3 Native   
    ##  3 Houston C             1 Poa_pratensis                 15 Nonnative
    ##  4 Houston C             1 Rudbeckia_hirta                5 Native   
    ##  5 Houston C             1 Schizachyrium_scoparium       15 Native   
    ##  6 Houston C             1 Symphyotrichum_ericoides       1 Native   
    ##  7 Houston C             2 Bouteloua_curtipendula         5 Native   
    ##  8 Houston C             2 Bromus_inermis                 2 Nonnative
    ##  9 Houston C             2 Poa_pratensis                  8 Nonnative
    ## 10 Houston C             2 Schizachyrium_scoparium       35 Native   
    ## # ... with 170 more rows
…
